<?xml version='1.0'?>
<!-- This file was generated by dvisvgm 1.10 -->
<svg height='49.2948pt' version='1.1' viewBox='-69.0112 -69.0009 51.4302 49.2948' width='51.4302pt' xmlns='http://www.w3.org/2000/svg' xmlns:xlink='http://www.w3.org/1999/xlink'>
<defs>
<font horiz-adv-x='0' id='xybtip10'>
<font-face ascent='543' descent='-543' font-family='xybtip10' units-per-em='1000'/>
<glyph d='' glyph-name='.notdef' horiz-adv-x='0' unicoe='' vert-adv-y='0'/>
<glyph d='' glyph-name='.notdef' horiz-adv-x='0' unicoe='' vert-adv-y='0'/>
</font>
<font horiz-adv-x='0' id='cmmi7'>
<font-face ascent='750' descent='-250' font-family='cmmi7' units-per-em='1000'/>
<glyph d='M407 395H505C525 395 538 395 538 417C538 431 525 431 507 431H414C437 558 445 604 453 633C458 655 480 676 504 676C505 676 532 676 551 664C510 651 507 615 507 609C507 587 524 572 547 572C574 572 604 595 604 633C604 679 555 704 504 704C460 704 411 679 384 629C364 592 356 547 335 431H256C236 431 223 431 223 409C223 395 236 395 254 395H328C327 389 264 29 240 -78C235 -100 218 -176 170 -176C169 -176 145 -176 126 -164C167 -151 170 -115 170 -109C170 -87 153 -72 130 -72C103 -72 73 -95 73 -133C73 -178 120 -204 170 -204C234 -204 278 -138 290 -116C326 -49 349 74 351 86L407 395Z' glyph-name='f' horiz-adv-x='557' unicode='f' vert-adv-y='557'/>
<glyph d='M532 369C536 384 536 389 536 390C536 412 518 422 502 422C479 422 460 403 456 384C439 411 405 441 353 441C228 441 97 307 97 164C97 61 167 0 249 0C295 0 339 23 374 54L352 -36C341 -78 334 -105 296 -139C252 -176 209 -176 184 -176C138 -176 125 -173 107 -169C132 -157 139 -133 139 -119C139 -95 120 -82 100 -82C72 -82 43 -105 43 -143C43 -203 129 -204 185 -204C342 -204 409 -124 423 -67L532 369ZM394 133C390 118 390 116 373 96C338 54 290 28 252 28C201 28 177 71 177 123C177 167 204 279 230 323C272 393 319 413 353 413C423 413 442 338 442 328C442 326 442 324 439 313L394 133Z' glyph-name='g' horiz-adv-x='557' unicode='g' vert-adv-y='557'/>
</font>
<font horiz-adv-x='0' id='cmmi10'>
<font-face ascent='750' descent='-250' font-family='cmmi10' units-per-em='1000'/>
<glyph d='M917 567C942 611 966 647 1029 652C1038 653 1048 653 1048 672C1048 676 1044 683 1036 683C1012 683 984 680 959 680C925 680 888 683 855 683C849 683 836 683 836 664C836 653 845 652 851 652C875 651 910 643 910 613C910 602 905 594 897 580L627 109L590 605C589 625 587 651 660 652C677 652 687 652 687 672C687 682 676 683 672 683C632 683 590 680 550 680C527 680 468 683 445 683C439 683 426 683 426 663C426 652 436 652 450 652C494 652 501 646 503 627L509 550L256 109L218 616C218 628 218 651 294 652C304 652 315 652 315 672C315 683 303 683 301 683C261 683 219 680 178 680C143 680 107 683 73 683C68 683 55 683 55 664C55 652 64 652 80 652C130 652 131 643 133 615L178 4C179 -14 180 -22 194 -22C206 -22 209 -16 218 -1L512 509L549 4C551 -17 553 -22 565 -22C578 -22 584 -12 589 -3L917 567Z' glyph-name='W' horiz-adv-x='944' unicode='W' vert-adv-y='944'/>
<glyph d='M485 411L401 610C398 618 396 622 396 623C396 629 413 648 455 652C465 653 475 654 475 671C475 683 463 683 460 683C419 683 376 680 334 680C309 680 247 683 222 683C216 683 204 683 204 663C204 652 214 652 227 652C287 652 293 642 302 620L420 341L209 114L196 103C147 50 100 34 49 31C36 30 27 30 27 11C27 10 27 0 40 0C70 0 103 3 134 3C171 3 210 0 246 0C252 0 264 0 264 20C264 30 254 31 252 31C243 32 212 34 212 62C212 78 227 94 239 107L341 215L431 313L532 74C536 63 537 62 537 60C537 52 518 35 479 31C468 30 459 29 459 12C459 0 470 0 474 0C502 0 572 3 600 3C625 3 686 0 711 0C718 0 730 0 730 19C730 31 720 31 712 31C645 32 643 35 626 75C587 168 520 324 497 384C565 454 670 573 702 601C731 625 769 649 829 652C842 653 851 653 851 672C851 673 851 683 838 683C808 683 775 680 744 680C707 680 669 683 633 683C627 683 614 683 614 663C614 656 619 653 626 652C635 651 666 649 666 621C666 607 655 594 647 585L485 411Z' glyph-name='X' horiz-adv-x='828' unicode='X' vert-adv-y='828'/>
<glyph d='M597 569L611 583C641 613 674 647 742 652C753 653 762 653 762 671C762 679 757 683 749 683C723 683 694 680 667 680C634 680 599 683 567 683C561 683 548 683 548 664C548 653 558 652 563 652C570 652 599 650 599 629C599 612 576 586 572 581L340 314L230 611C224 625 224 627 224 628C224 652 273 652 283 652C297 652 307 652 307 672C307 683 295 683 292 683C264 683 194 680 166 680C141 680 79 683 54 683C48 683 35 683 35 663C35 652 45 652 58 652C118 652 122 643 131 618L254 289C255 286 258 275 258 272S218 108 213 90C200 35 199 32 119 31C100 31 92 31 92 11C92 0 104 0 106 0C134 0 204 3 232 3S332 0 360 0C367 0 379 0 379 20C379 31 370 31 351 31C349 31 330 31 313 33C292 35 286 37 286 49C286 56 295 91 300 112L335 253C340 272 341 275 349 284L597 569Z' glyph-name='Y' horiz-adv-x='580' unicode='Y' vert-adv-y='580'/>
<glyph d='M720 659C721 663 723 668 723 674C723 683 718 683 698 683H276C252 683 251 682 245 663L190 483C188 478 187 471 187 469C187 468 187 458 199 458C208 458 210 465 212 468C250 586 302 652 458 652H621L62 27C62 26 58 12 58 9C58 0 65 0 83 0H518C542 0 543 1 549 20L620 241C621 245 624 252 624 256C624 261 620 267 611 267S601 263 594 242C550 106 502 34 332 34H161L720 659Z' glyph-name='Z' horiz-adv-x='682' unicode='Z' vert-adv-y='682'/>
</font>
<font horiz-adv-x='0' id='xyatip10'>
<font-face ascent='543' descent='-543' font-family='xyatip10' units-per-em='1000'/>
<glyph d='' glyph-name='.notdef' horiz-adv-x='0' unicoe='' vert-adv-y='0'/>
<glyph d='' glyph-name='.notdef' horiz-adv-x='0' unicoe='' vert-adv-y='0'/>
</font>
<font horiz-adv-x='0' id='cmsy5'>
<font-face ascent='791' descent='-944' font-family='cmsy5' units-per-em='1000'/>
<glyph d='M360 465C361 466 370 485 370 500C370 536 338 559 308 559C267 559 256 528 251 513L97 80C93 68 93 65 93 64C93 48 135 38 136 38C145 38 147 43 153 55L360 465Z' glyph-name='prime' horiz-adv-x='440' unicoe='' vert-adv-y='440'/>
</font>
</defs>
<style type='text/css'><![CDATA[
text.f0 {font-family:xybtip10;font-size:9.96264px}
text.f1 {font-family:xyatip10;font-size:9.96264px}
text.f2 {font-family:cmsy5;font-size:4.98132px}
text.f3 {font-family:cmmi10;font-size:9.96264px}
text.f4 {font-family:cmmi7;font-size:6.97385px}
]]>
</style>
<g id='page1'>
<text class='f3' x='-69.0112' y='-56.4018'>X</text>
<text class='f4' x='-61.5046' y='-38.8012'>f</text>
<text class='f1' x='-64.4934' y='-29.5027'>\00</text>
<text class='f0' x='-64.4934' y='-29.5027'>\00</text>
<rect height='23.9103' width='0.398469' x='-64.6927' y='-53.413'/>
<text class='f4' x='-48.273' y='-63.2373'>f</text>
<text class='f2' x='-43.621' y='-66.2438'>\00</text>
<text class='f1' x='-33.0765' y='-58.8925'>\00</text>
<text class='f0' x='-33.0765' y='-58.8925'>\00</text>
<rect height='0.398469' width='23.9103' x='-56.9869' y='-59.0917'/>
<text class='f3' x='-30.0877' y='-56.4018'>W</text>
<text class='f4' x='-21.7025' y='-39.7213'>g</text>
<text class='f1' x='-24.6913' y='-29.5027'>\00</text>
<text class='f0' x='-24.6913' y='-29.5027'>\00</text>
<rect height='23.9103' width='0.398469' x='-24.8905' y='-53.413'/>
<text class='f3' x='-68.4923' y='-19.7061'>Y</text>
<text class='f4' x='-48.0082' y='-26.5416'>g</text>
<text class='f2' x='-43.8858' y='-29.5481'>\00</text>
<text class='f1' x='-31.4368' y='-22.1968'>\00</text>
<text class='f0' x='-31.4368' y='-22.1968'>\00</text>
<rect height='0.398469' width='26.0689' x='-57.5057' y='-22.396'/>
<text class='f3' x='-28.4481' y='-19.7061'>Z</text>
</g>
</svg>
